# Elegans experiment | Portofolio Book
…
mean_elegans_data <- elegans_data %>% 
  select(RawData, compName, compConcentration) %>%
  filter(compName == 'S-medium') %>%
  group_by(compName) %>% summarise(mean_RawData = mean(RawData))
#express all the values to a fraction of the normalized data
normalized_elegans_data <- elegans_data %>% 
  select(compName, compConcentration, RawData) %>%
  mutate(Normalized_RawData = RawData / mean_elegans_data$mean_RawData)
mean_normalized_elegans_data <- normalized_elegans_data %>%
  group_by(compName, compConcentration) %>%
  summarise(mean_normalized_RawData = mean(Normalized_RawData))
mean_normalized_elegans_data

## # A tibble: 22 x 3
## # Groups:   compName [5]
##    compName                   compConcentration     mean_normalized_RawData
##    <chr>                      <chr>                                   <dbl>
##  1 2,6-diisopropylnaphthalene 0.499                                   0.504
##  2 2,6-diisopropylnaphthalene 4.9899999999999996E-3                   0.875
##  3 2,6-diisopropylnaphthalene 4.9899999999999999E-4                   0.967
##  4 2,6-diisopropylnaphthalene 4.99                                    0.470
##  5 2,6-diisopropylnaphthalene 4.99E-2                                 0.687
##  6 2,6-diisopropylnaphthalene 4.99E-5                                 1.04 
##  7 decane                     0.499                                   0.257
##  8 decane                     4.9899999999999996E-3                   1.07 
##  9 decane                     4.9899999999999999E-4                   1.08 
## 10 decane                     4.99                                    0.238
## # ... with 12 more rows
…
